1-5-9-15 (1) - 51.06896551724138
1-5-9-15 (1) - 51.06896551724138
1-5-9-15 (1) - 53.06896551724138
1-5-9-15 (1) - 53.06896551724138
1-5-9-15 (2) - 51.06896551724138
1-5-9-15 (2) - 51.06896551724138
1-5-9-15 (2) - 53.06896551724138
1-5-9-15 (2) - 53.06896551724138
1-5-9-15 (3) - 51.06896551724138
1-5-9-15 (3) - 51.06896551724138
1-5-9-15 (3) - 53.06896551724138
1-5-9-15 (3) - 53.06896551724138
1-5-9-15 (4) - 51.06896551724138
1-5-9-15 (4) - 51.06896551724138
1-5-9-15 (4) - 53.06896551724138
1-5-9-15 (4) - 53.06896551724138
1-5-9-15 (5) - 52.892857142857146
1-5-9-15 (5) - 52.892857142857146
1-5-9-15 (5) - 54.964285714285715
1-5-9-15 (5) - 54.964285714285715
1-5-9-15 (6) - 52.892857142857146
1-5-9-15 (6) - 52.892857142857146
1-5-9-15 (6) - 54.964285714285715
1-5-9-15 (6) - 54.964285714285715
2-5-9-12 (1) - 105.72727272727273
2-5-9-12 (1) - 105.72727272727273
2-5-9-12 (1) - 105.72727272727273
2-5-9-12 (1) - 105.72727272727273
2-5-9-12 (2) - 101.1304347826087
2-5-9-12 (2) - 101.1304347826087
2-5-9-12 (2) - 101.1304347826087
2-5-9-12 (2) - 101.1304347826087
2-5-9-12 (3) - 101.1304347826087
2-5-9-12 (3) - 101.1304347826087
2-5-9-12 (3) - 101.1304347826087
2-5-9-12 (3) - 101.1304347826087
2-5-9-12 (4) - 93.04
2-5-9-12 (4) - 93.04
2-5-9-12 (4) - 93.04
2-5-9-12 (4) - 93.04
2-5-9-12 (5) - 89.46153846153847
2-5-9-12 (5) - 89.46153846153847
2-5-9-12 (5) - 89.46153846153847
2-5-9-12 (5) - 89.46153846153847
2-5-9-12 (6) - 93.04
2-5-9-12 (6) - 93.04
2-5-9-12 (6) - 93.04
2-5-9-12 (6) - 93.04
2-6-10-14 (1) - 63.93103448275862
2-6-10-14 (1) - 63.93103448275862
2-6-10-14 (1) - 84.65517241379311
2-6-10-14 (1) - 84.65517241379311
2-6-10-14 (2) - 63.93103448275862
2-6-10-14 (2) - 63.93103448275862
2-6-10-14 (2) - 84.65517241379311
2-6-10-14 (2) - 84.65517241379311
2-6-10-14 (3) - 66.21428571428571
2-6-10-14 (3) - 66.21428571428571
2-6-10-14 (3) - 87.67857142857143
2-6-10-14 (3) - 87.67857142857143
2-6-10-14 (4) - 66.21428571428571
2-6-10-14 (4) - 66.21428571428571
2-6-10-14 (4) - 87.67857142857143
2-6-10-14 (4) - 87.67857142857143
2-6-10-14 (5) - 61.8
2-6-10-14 (5) - 61.8
2-6-10-14 (5) - 81.83333333333333
2-6-10-14 (5) - 81.83333333333333
2-6-10-14 (6) - 61.8
2-6-10-14 (6) - 61.8
2-6-10-14 (6) - 81.83333333333333
2-6-10-14 (6) - 81.83333333333333
2-6-9-11 (1) - 111.36363636363636
2-6-9-11 (1) - 111.36363636363636
2-6-9-11 (1) - 111.36363636363636
2-6-9-11 (1) - 111.36363636363636
2-6-9-11 (2) - 90.74074074074075
2-6-9-11 (2) - 90.74074074074075
2-6-9-11 (2) - 90.74074074074075
2-6-9-11 (2) - 90.74074074074075
2-6-9-11 (3) - 102.08333333333333
2-6-9-11 (3) - 102.08333333333333
2-6-9-11 (3) - 102.08333333333333
2-6-9-11 (3) - 102.08333333333333
2-6-9-11 (4) - 111.36363636363636
2-6-9-11 (4) - 111.36363636363636
2-6-9-11 (4) - 111.36363636363636
2-6-9-11 (4) - 111.36363636363636
2-6-9-11 (5) - 102.08333333333333
2-6-9-11 (5) - 102.08333333333333
2-6-9-11 (5) - 102.08333333333333
2-6-9-11 (5) - 102.08333333333333
2-6-9-11 (6) - 98.0
2-6-9-11 (6) - 98.0
2-6-9-11 (6) - 98.0
2-6-9-11 (6) - 98.0
3-5-8-12 (1) - 102.33333333333333
3-5-8-12 (1) - 102.33333333333333
3-5-8-12 (1) - 102.33333333333333
3-5-8-12 (1) - 102.33333333333333
3-5-8-12 (2) - 102.33333333333333
3-5-8-12 (2) - 102.33333333333333
3-5-8-12 (2) - 102.33333333333333
3-5-8-12 (2) - 102.33333333333333
3-5-8-12 (3) - 85.96
3-5-8-12 (3) - 85.96
3-5-8-12 (3) - 85.96
3-5-8-12 (3) - 85.96
3-5-8-12 (4) - 85.96
3-5-8-12 (4) - 85.96
3-5-8-12 (4) - 85.96
3-5-8-12 (4) - 85.96
3-5-8-12 (5) - 93.43478260869566
3-5-8-12 (5) - 93.43478260869566
3-5-8-12 (5) - 93.43478260869566
3-5-8-12 (5) - 93.43478260869566
3-5-8-12 (6) - 85.96
3-5-8-12 (6) - 85.96
3-5-8-12 (6) - 85.96
3-5-8-12 (6) - 85.96
3-6-8-11 (1) - 108.23809523809524
3-6-8-11 (1) - 108.23809523809524
3-6-8-11 (1) - 108.23809523809524
3-6-8-11 (1) - 108.23809523809524
3-6-8-11 (2) - 90.92
3-6-8-11 (2) - 90.92
3-6-8-11 (2) - 90.92
3-6-8-11 (2) - 90.92
3-6-8-11 (3) - 87.42307692307692
3-6-8-11 (3) - 87.42307692307692
3-6-8-11 (3) - 87.42307692307692
3-6-8-11 (3) - 87.42307692307692
3-6-8-11 (4) - 98.82608695652173
3-6-8-11 (4) - 98.82608695652173
3-6-8-11 (4) - 98.82608695652173
3-6-8-11 (4) - 98.82608695652173
3-6-8-11 (5) - 108.23809523809524
3-6-8-11 (5) - 108.23809523809524
3-6-8-11 (5) - 108.23809523809524
3-6-8-11 (5) - 108.23809523809524
3-6-8-11 (6) - 87.42307692307692
3-6-8-11 (6) - 87.42307692307692
3-6-8-11 (6) - 87.42307692307692
3-6-8-11 (6) - 87.42307692307692
3-8-12-13 (1) - 65.16666666666667
3-8-12-13 (1) - 65.16666666666667
3-8-12-13 (1) - 70.66666666666667
3-8-12-13 (1) - 70.66666666666667
3-8-12-13 (2) - 65.16666666666667
3-8-12-13 (2) - 65.16666666666667
3-8-12-13 (2) - 70.66666666666667
3-8-12-13 (2) - 70.66666666666667
3-8-12-13 (3) - 65.16666666666667
3-8-12-13 (3) - 65.16666666666667
3-8-12-13 (3) - 70.66666666666667
3-8-12-13 (3) - 70.66666666666667
3-8-12-13 (4) - 72.4074074074074
3-8-12-13 (4) - 72.4074074074074
3-8-12-13 (4) - 78.51851851851852
3-8-12-13 (4) - 78.51851851851852
3-8-12-13 (5) - 81.45833333333333
3-8-12-13 (5) - 81.45833333333333
3-8-12-13 (5) - 88.33333333333333
3-8-12-13 (5) - 88.33333333333333
3-8-12-13 (6) - 78.2
3-8-12-13 (6) - 78.2
3-8-12-13 (6) - 84.8
3-8-12-13 (6) - 84.8